[api-updater (non-obsolete-error-filter)] 3/16/2022 10:14:56 PM : Starting C:/Program Files/Unity/Hub/Editor/2020.3.30f1/Editor/Data/Tools/ScriptUpdater/APIUpdater.NonObsoleteApiUpdaterDetector.exe
[api-updater (non-obsolete-error-filter)] 
----------------------------------
jit/startup time      : 499.2131ms
moved types parse time: 36ms
candidates parse time : 0ms
C# parse time         : 393ms
candidates check time : 17ms
console write time    : 0ms

[api-updater (non-obsolete-error-filter)] 3/16/2022 10:15:10 PM : Starting C:/Program Files/Unity/Hub/Editor/2020.3.30f1/Editor/Data/Tools/ScriptUpdater/APIUpdater.NonObsoleteApiUpdaterDetector.exe
[api-updater (non-obsolete-error-filter)] 
----------------------------------
jit/startup time      : 54.4317ms
moved types parse time: 34ms
candidates parse time : 0ms
C# parse time         : 134ms
candidates check time : 17ms
console write time    : 0ms

[api-updater (non-obsolete-error-filter)] 3/16/2022 10:46:28 PM : Starting C:/Program Files/Unity/Hub/Editor/2020.3.30f1/Editor/Data/Tools/ScriptUpdater/APIUpdater.NonObsoleteApiUpdaterDetector.exe
[api-updater (non-obsolete-error-filter)] Exception caught while loading types from C:\Users\Admin\Who is the Winner\Library\ScriptAssemblies\Unity.CollabProxy.Editor.dll (some types may not be loaded)
	Exception of type 'System.Reflection.ReflectionTypeLoadException' was thrown.
	  at (wrapper managed-to-native) System.Reflection.Assembly.GetTypes(System.Reflection.Assembly,bool)
  at System.Reflection.Assembly.GetTypes () [0x00000] in <695d1cc93cca45069c528c15c9fdd749>:0 
  at APIUpdater.NonObsoleteApiUpdaterDetector.ExtraInfoParser+<LoadTypesWithMovedFromAttributeAsync>d__3.MoveNext () [0x000c8] in <68bff7873e0e4aa69a14dfc30bebbe3e>:0 
	Could not load file or assembly 'UnityEditor.CoreModule, Version=0.0.0.0, Culture=neutral, PublicKeyToken=null' or one of its dependencies.

[api-updater (non-obsolete-error-filter)] Exception caught while loading types from C:\Users\Admin\Who is the Winner\Library\ScriptAssemblies\Unity.TextMeshPro.Editor.dll (some types may not be loaded)
	Exception of type 'System.Reflection.ReflectionTypeLoadException' was thrown.
	  at (wrapper managed-to-native) System.Reflection.Assembly.GetTypes(System.Reflection.Assembly,bool)
  at System.Reflection.Assembly.GetTypes () [0x00000] in <695d1cc93cca45069c528c15c9fdd749>:0 
  at APIUpdater.NonObsoleteApiUpdaterDetector.ExtraInfoParser+<LoadTypesWithMovedFromAttributeAsync>d__3.MoveNext () [0x000c8] in <68bff7873e0e4aa69a14dfc30bebbe3e>:0 
	Could not load file or assembly 'UnityEditor.CoreModule, Version=0.0.0.0, Culture=neutral, PublicKeyToken=null' or one of its dependencies.

[api-updater (non-obsolete-error-filter)] 
----------------------------------
jit/startup time      : 397.5827ms
moved types parse time: 30ms
candidates parse time : 0ms
C# parse time         : 345ms
candidates check time : 16ms
console write time    : 0ms

[api-updater (non-obsolete-error-filter)] 3/16/2022 10:51:20 PM : Starting C:/Program Files/Unity/Hub/Editor/2020.3.30f1/Editor/Data/Tools/ScriptUpdater/APIUpdater.NonObsoleteApiUpdaterDetector.exe
[api-updater (non-obsolete-error-filter)] 
----------------------------------
jit/startup time      : 373.2609ms
moved types parse time: 30ms
candidates parse time : 0ms
C# parse time         : 304ms
candidates check time : 14ms
console write time    : 0ms

[api-updater (non-obsolete-error-filter)] 3/16/2022 10:51:25 PM : Starting C:/Program Files/Unity/Hub/Editor/2020.3.30f1/Editor/Data/Tools/ScriptUpdater/APIUpdater.NonObsoleteApiUpdaterDetector.exe
[api-updater (non-obsolete-error-filter)] 
----------------------------------
jit/startup time      : 50.0058ms
moved types parse time: 41ms
candidates parse time : 1ms
C# parse time         : 108ms
candidates check time : 15ms
console write time    : 0ms

